ansible==2.2.0.0
beautifulsoup4==4.6.0
cachetools==2.1.0
click==5.1
Django==1.8.5
django-bootstrap-pagination==1.6.2
django-ckeditor==5.4.0
django-cleanup==0.4.0
django-colorful==1.2
django-debug-toolbar-template-timings==0.7
django-disqus==0.5
django-extensions==1.7.5
django-filer==0.9.12
django-getenv==1.3.1
django-htmlmin==0.10.0
django-js-asset==1.1.0
django-mptt==0.7.4
django-otto-admin==0.1.2
django-pipeline==1.5.4
django-polymorphic==0.7.2
django-simple-captcha==0.4.6
django-smart-selects==1.2.9
django-suit==0.2.15
django-taggit==0.18.0
django-treenav==1.0.0
django-widget-tweaks==1.4.1
djangorestframework==3.6.3
easy-thumbnails==2.2
ecdsa==0.13
Fabric==1.10.2
feedparser==5.2.1
funcsigs==0.4
futures==3.0.3
google-api-python-client==1.7.4
google-auth==1.5.0
google-auth-httplib2==0.0.3
html5lib==0.999999999
httplib2==0.11.3
Jinja2==2.8
MarkupSafe==0.23
mock==1.3.0
mysqlclient==1.4.6
oauth2client==1.5.2
ordereddict==1.1
paramiko==1.15.3
pbr==1.8.1
Pillow==3.0.0
pyasn1==0.4.4
pyasn1-modules==0.2.2
pycrypto==2.6.1
pydot==1.2.3
pygeoip==0.3.2
pyparsing==2.1.10
python-dateutil==2.6.0
python-dotenv==0.1.5
pytz==2017.2
PyYAML==3.11
rsa==3.4.2
six==1.10.0
sorl-thumbnail==12.3
Unidecode==0.4.18
uritemplate==3.0.0
webencodings==0.5.1
